ds202_hw5
…
extract year, month and day from the variable Date as separate columns.

#a
amescleana <- ames %>%
  separate('Store Location', c("Address", "City", "Coordinates"), sep = "\n") %>%
  mutate(Coordinates = gsub("[()]", "", Coordinates)) %>%
  separate("Coordinates", c("Latitude", "Longitude"), sep = ",")

## Warning: Expected 3 pieces. Missing pieces filled with `NA` in 48250 rows
## [16, 20, 43, 44, 45, 51, 52, 54, 55, 67, 68, 73, 76, 77, 78, 80, 82, 83, 84,
## 85, ...].

amescleana

## # A tibble: 63,103 x 25
##    `Invoice/Item N Date  `Store Number` `Store Name` `Zip Code` `County Number`
##    <chr>            <chr>          <dbl> <chr>             <dbl>           <dbl>
##  1 INV-16712000040  01/0           2500 Hy-Vee Food      50010              85
##  2 INV-16712000012  01/0           2500 Hy-Vee Food      50010              85
##  3 INV-16712000070  01/0           2500 Hy-Vee Food      50010              85
##  4 INV-16712000009  01/0           2500 Hy-Vee Food      50010              85
##  5 INV-16712000160  01/0           2500 Hy-Vee Food      50010              85
##  6 INV-16712000119  01/0           2500 Hy-Vee Food      50010              85
##  7 INV-16712000153  01/0           2500 Hy-Vee Food      50010              85
##  8 INV-16712000114  01/0           2500 Hy-Vee Food      50010              85
##  9 INV-16834400018  01/0           4251 AJ's Liquor      50014              85
## 10 INV-16834600031  01/0           2500 Hy-Vee Food      50010              85
## #  with 63,093 more rows, and 19 more variables: County <chr>, Address <chr>,
## #   City <chr>, Latitude <chr>, Longitude <chr>, Category <dbl>, `Category
## #   Name` <chr>, `Vendor Number` <chr>, `Vendor Name` <chr>, `Item
## #   Number` <dbl>, `Item Description` <chr>, Pack <dbl>, `Bottle Volume
## #   (ml)` <dbl>, `State Bottle Cost` <dbl>, `State Bottle Retail` <dbl>,
## #   `Bottles Sold` <dbl>, `Sale (Dollars)` <dbl>, `Volume Sold (Liters)` <dbl>,
## #   `Volume Sold (Gallons)` <dbl>

amesclean1 <- ames %>% 
  separate(`Store Location`, c('Point', 'long', 'lat'), sep=' ') %>% 
  separate(long, c('extra', 'long'), sep = '\\(') %>% 
  separate(lat, c('lat', 'extra2'), sep = '\\)') %>% 
  select(-extra, -extra2, -Point)
amesclean1

## # A tibble: 63,103 x 25
##    `Invoice/Item N Date  `Store Number` `Store Name` Address City  `Zip Code`
##    <chr>            <chr>          <dbl> <chr>        <chr>   <chr>      <dbl>
##  1 INV-16712000040  01/0           2500 Hy-Vee Food 3800 W Ames       50010
##  2 INV-16712000012  01/0           2500 Hy-Vee Food 3800 W Ames       50010
##  3 INV-16712000070  01/0           2500 Hy-Vee Food 3800 W Ames       50010
##  4 INV-16712000009  01/0           2500 Hy-Vee Food 3800 W Ames       50010
##  5 INV-16712000160  01/0           2500 Hy-Vee Food 3800 W Ames       50010
##  6 INV-16712000119  01/0           2500 Hy-Vee Food 3800 W Ames       50010
##  7 INV-16712000153  01/0           2500 Hy-Vee Food 3800 W Ames       50010
##  8 INV-16712000114  01/0           2500 Hy-Vee Food 3800 W Ames       50010
##  9 INV-16834400018  01/0           4251 AJ's Liquor 4518 M Ames       50014
## 10 INV-16834600031  01/0           2500 Hy-Vee Food 3800 W Ames       50010
## #  with 63,093 more rows, and 18 more variables: long <chr>, lat <chr>,
## #   `County Number` <dbl>, County <chr>, Category <dbl>, `Category Name` <chr>,
## #   `Vendor Number` <chr>, `Vendor Name` <chr>, `Item Number` <dbl>, `Item
## #   Description` <chr>, Pack <dbl>, `Bottle Volume (ml)` <dbl>, `State Bottle
## #   Cost` <dbl>, `State Bottle Retail` <dbl>, `Bottles Sold` <dbl>, `Sale
## #   (Dollars)` <dbl>, `Volume Sold (Liters)` <dbl>, `Volume Sold
## #   (Gallons)` <dbl>

#b
amesb <- ames %>% 
  separate(`Store Location`, c('Point', 'long', 'lat'), sep=' ') %>% 
  separate(long, c('extra', 'long'), sep = '\\(') %>% 
  separate(lat, c('lat', 'extra2'), sep = '\\)') %>% 
  select(-extra, -extra2, -Point)
amesb

## # A tibble: 63,103 x 25
##    `Invoice/Item N Date  `Store Number` `Store Name` Address City  `Zip Code`
##    <chr>            <chr>          <dbl> <chr>        <chr>   <chr>      <dbl>
##  1 INV-16712000040  01/0           2500 Hy-Vee Food 3800 W Ames       50010
##  2 INV-16712000012  01/0           2500 Hy-Vee Food 3800 W Ames       50010
##  3 INV-16712000070  01/0           2500 Hy-Vee Food 3800 W Ames       50010
##  4 INV-16712000009  01/0           2500 Hy-Vee Food 3800 W Ames       50010
##  5 INV-16712000160  01/0           2500 Hy-Vee Food 3800 W Ames       50010
##  6 INV-16712000119  01/0           2500 Hy-Vee Food 3800 W Ames       50010
##  7 INV-16712000153  01/0           2500 Hy-Vee Food 3800 W Ames       50010
##  8 INV-16712000114  01/0           2500 Hy-Vee Food 3800 W Ames       50010
##  9 INV-16834400018  01/0           4251 AJ's Liquor 4518 M Ames       50014
## 10 INV-16834600031  01/0           2500 Hy-Vee Food 3800 W Ames       50010
## #  with 63,093 more rows, and 18 more variables: long <chr>, lat <chr>,
## #   `County Number` <dbl>, County <chr>, Category <dbl>, `Category Name` <chr>,
## #   `Vendor Number` <chr>, `Vendor Name` <chr>, `Item Number` <dbl>, `Item
## #   Description` <chr>, Pack <dbl>, `Bottle Volume (ml)` <dbl>, `State Bottle
## #   Cost` <dbl>, `State Bottle Retail` <dbl>, `Bottles Sold` <dbl>, `Sale
## #   (Dollars)` <dbl>, `Volume Sold (Liters)` <dbl>, `Volume Sold
## #   (Gallons)` <dbl>

ames2 <- amesclean1 %>% 
  mutate(long = as.numeric(long),
         lat = as.numeric(lat))
ames2

## # A tibble: 63,103 x 25
##    `Invoice/Item N Date  `Store Number` `Store Name` Address City  `Zip Code`
##    <chr>            <chr>          <dbl> <chr>        <chr>   <chr>      <dbl>
##  1 INV-16712000040  01/0           2500 Hy-Vee Food 3800 W Ames       50010
##  2 INV-16712000012  01/0           2500 Hy-Vee Food 3800 W Ames       50010
##  3 INV-16712000070  01/0           2500 Hy-Vee Food 3800 W Ames       50010
##  4 INV-16712000009  01/0           2500 Hy-Vee Food 3800 W Ames       50010
##  5 INV-16712000160  01/0           2500 Hy-Vee Food 3800 W Ames       50010
##  6 INV-16712000119  01/0           2500 Hy-Vee Food 3800 W Ames       50010
##  7 INV-16712000153  01/0           2500 Hy-Vee Food 3800 W Ames       50010
##  8 INV-16712000114  01/0           2500 Hy-Vee Food 3800 W Ames       50010
##  9 INV-16834400018  01/0           4251 AJ's Liquor 4518 M Ames       50014
## 10 INV-16834600031  01/0           2500 Hy-Vee Food 3800 W Ames       50010
## #  with 63,093 more rows, and 18 more variables: long <dbl>, lat <dbl>,
## #   `County Number` <dbl>, County <chr>, Category <dbl>, `Category Name` <chr>,
## #   `Vendor Number` <chr>, `Vendor Name` <chr>, `Item Number` <dbl>, `Item
## #   Description` <chr>, Pack <dbl>, `Bottle Volume (ml)` <dbl>, `State Bottle
## #   Cost` <dbl>, `State Bottle Retail` <dbl>, `Bottles Sold` <dbl>, `Sale
## #   (Dollars)` <dbl>, `Volume Sold (Liters)` <dbl>, `Volume Sold
## #   (Gallons)` <dbl>

#c
ames3 <- ames2 %>% 
  separate(Date, into = c('Month','Day','Year'), sep = '/') %>% 
  mutate(Month = as.integer(Month),
         Day = as.integer(Day),
         Year = as.integer(Year))
ames3

## # A tibble: 63,103 x 27
##    `Invoice/Item N Month   Day  Year `Store Number` `Store Name` Address City 
##    <chr>            <int> <int> <int>          <dbl> <chr>        <chr>   <chr>
##  1 INV-16712000040      1     3  2019           2500 Hy-Vee Food 3800 W Ames 
##  2 INV-16712000012      1     3  2019           2500 Hy-Vee Food 3800 W Ames 
##  3 INV-16712000070      1     3  2019           2500 Hy-Vee Food 3800 W Ames 
##  4 INV-16712000009      1     3  2019           2500 Hy-Vee Food 3800 W Ames 
##  5 INV-16712000160      1     3  2019           2500 Hy-Vee Food 3800 W Ames 
##  6 INV-16712000119      1     3  2019           2500 Hy-Vee Food 3800 W Ames 
##  7 INV-16712000153      1     3  2019           2500 Hy-Vee Food 3800 W Ames 
##  8 INV-16712000114      1     3  2019           2500 Hy-Vee Food 3800 W Ames 
##  9 INV-16834400018      1     9  2019           4251 AJ's Liquor 4518 M Ames 
## 10 INV-16834600031      1     9  2019           2500 Hy-Vee Food 3800 W Ames 
## #  with 63,093 more rows, and 19 more variables: `Zip Code` <dbl>, long <dbl>,
## #   lat <dbl>, `County Number` <dbl>, County <chr>, Category <dbl>, `Category
## #   Name` <chr>, `Vendor Number` <chr>, `Vendor Name` <chr>, `Item
## #   Number` <dbl>, `Item Description` <chr>, Pack <dbl>, `Bottle Volume
## #   (ml)` <dbl>, `State Bottle Cost` <dbl>, `State Bottle Retail` <dbl>,
## #   `Bottles Sold` <dbl>, `Sale (Dollars)` <dbl>, `Volume Sold (Liters)` <dbl>,
## #   `Volume Sold (Gallons)` <dbl>
…
4. Principal Component Analysis for Functional Data on Riemannian Manifolds and Spheres

ames4 <- ames3 %>% 
  group_by(Year, Month, Day) %>% 
  summarise(`Total Sales`=n(),
            `Volume`  = sum(`Volume Sold (Gallons)`),
            `Money Spent` = sum(`Sale (Dollars)`))
ames4

## # A tibble: 157 x 6
## # Groups:   Year, Month [12]
##     Year Month   Day `Total Sales` Volume `Money Spent`
##    <int> <int> <int>         <int>  <dbl>         <dbl>
##  1  2019     1     3           957 1795.        112009.
##  2  2019     1     4           143  331.         16766.
##  3  2019     1     9           944 1773.         99703.
##  4  2019     1    10             2   35.6         1457.
##  5  2019     1    11           177  317.         16481.
##  6  2019     1    16           912 2168.        118597.
##  7  2019     1    18            62   60.8         4483.
##  8  2019     1    24          1221 2434.        139658.
##  9  2019     1    25           253  614.         31893.
## 10  2019     1    30          1082 2306.        127225.
## #  with 147 more rows
…
q4 <- ames3 %>% filter(Year == 2019)
q41 <- q4%>% group_by(Day,Month) %>% 
  summarise(sumBottleSold = sum(`Bottles Sold`), sumSale = sum(`Sale (Dollars)`),
                                sumVolumeSold = sum(`Volume Sold (Liters)`)) 
q41

## # A tibble: 157 x 5
## # Groups:   Day [31]
##      Day Month sumBottleSold  sumSale sumVolumeSold
##    <int> <int>         <dbl>    <dbl>         <dbl>
##  1     1     2          1225  19438.          1263.
##  2     1     3          1655  22531.          1557.
##  3     1     5          1715  31963.          2115.
##  4     1     8          3347  44361.          2728.
##  5     1    10           255   3526.           186 
##  6     1    11           623   6512.           652.
##  7     2     5          9468 132643.          8585.
##  8     2     7             1     18.8            1 
##  9     2     8           431   4046.           249.
## 10     2    10          4912  65284.          4288.
## #  with 147 more rows
…
